station "21 - Avenue Fontaine Argent, Boulevard Diderot" {
    latitude:47.2477615;
    longitude:5.9835995;
    capacite:12
}

station "Avenue du Maréchal Foch" {
    capacite : 10 ;
    longitude : 6.022671 ;
    latitude : 47.246511
}